[default]
GAMEOVR1 = "\"Game Over, Name Entry\" - Altered Beast";
GAMEOVR2 = "\"Game Over\" - Super Aleste";
GAMEOVR3 = "\"A Bad Dream\" - Earthbound";
GAMEOVR4 = "\"Last Words\" - Front Mission: Gun Hazard";

BELMS1 = "\"Cybernate-Q\" - Alien Storm";
BELMS2 = "\"We Are 'BUSTERS'\" - Alien Storm";
BELMS3 = "\"Warehouse\" - Skuljagger: Revolt of the Westicans";
BELMS4 = "\"Title\" - Cyber Knight";
BELMS5 = "\"Floating Fortress: The Threat from the Sky\" - Cyborg 009";
BELMS6 = "\"!!!...Shade...\" - Alien Soldier";
BELMS7 = "\"Silent\" - Alien Soldier";
BELMS8 = "\"Galaxy Desert\" - Alien Soldier";
BELMS9 = "\"Scene 1 - The Avengers\" - Captain America and the Avengers";
BELMS10 = "\"Dark Clouds\" - Bio Metal (JP)";
BELMS11 = "\"City\" - Shin Kidou Senki Gundam W: Endless Duel";
BELMS12 = "\"Desert\" - Shin Kidou Senki Gundam W: Endless Duel";
BELMS13 = "\"Seaside\" - Shin Kidou Senki Gundam W: Endless Duel";
BELMS14 = "\"American City\" - King of the Monsters 2";
BELMS15 = "\"Sea Bed\" - King of the Monsters 2";
BELMS16 = "\"Unkai\" - Axelay";
BELMS17 = "\"Colony\" - Axelay";
BELMS18 = "\"Mother\" - Axelay";
BELMS19 = "\"Silence\" - Axelay";
BELMS20 = "\"Stage 1 - Gotham City Streets 1\" - Batman";
BELMS21 = "\"Stage 2 - Axis Chemical Factory\" - Batman";
BELMS22 = "\"Stage 3 - Flugelheim Museum\" - Batman";
BELMS23 = "\"Stage 4-1 - Gotham City Streets 2 & Stage 5 - In the Sky Over Gotham City\" - Batman";
BELMS24 = "\"Stage 4-2 - Gotham City Streets 3 & Stage 6-2 - Gotham Cathedral 2\" - Batman";
BELMS25 = "\"Street Beat\" - Brawl Bros.";
BELMS26 = "\"Race Through the Jungle\" - Brawl Bros.";
BELMS27 = "\"Stage 1\" - Steel Empire";
BELMS28 = "\"Stage 2-1\" - Steel Empire";
BELMS29 = "\"Stage 3-1\" - Steel Empire";
BELMS30 = "\"Stage 4\" - Steel Empire";
BELMS31 = "\"Stage 5-2\" - Steel Empire";
BELMS32 = "\"Mutant's Dungeon\" - The Peacekeepers";
BELMS33 = "\"One-Way Trip to Hell\" - The Peacekeepers";
BELMS34 = "\"High Tech Laboratory\" - The Peacekeepers";
BELMS35 = "\"Wormland\" - Super Turrican 2";
BELMS36 = "\"One-Way Trip to Hell\" - Super Turrican 2";
BELMS37 = "\"Flood of Power (BGM 1)\" - Midnight Resistance";
BELMS38 = "\"Contra Overdrive\" - Contra: Hard Corps";
BELMS39 = "\"Something Wonderful\" - Contra: Hard Corps";
BELMS40 = "\"Zephyr\" - Contra: Hard Corps";
BELMS41 = "\"Ground Zero\" - Contra 3";
BELMS42 = "\"Tearing Up the Turnpike\" - Contra 3";
BELMS43 = "\"Neo Kobe Steel Factory\" - Contra 3";
BELMS44 = "\"Nesting in the Sands\" - Contra 3";
BELMS45 = "\"Cerberus Stampede\" - Bram Stocker's Dracula";
BELMS46 = "\"Unknown Song 2\" - Bram Stocker's Dracula";
BELMS47 = "\"Unknown Song 3\" - Bram Stocker's Dracula";
BELMS48 = "\"Spinner\" - Red Zone";
BELMS49 = "\"Night Mission\" - Red Zone";
BELMS50 = "\"Time's Running Out\" - Red Zone";
BELMS51 = "\"Walking\" - Red Zone";
BELMS52 = "\"DataRum\" - Red Zone";
BELMS53 = "\"Prehistoric Stage Theme 1\" - Second Samurai";
BELMS54 = "\"Future Stage Theme 1\" - Second Samurai";
BELMS55 = "\"Future Stage Theme 4\" - Second Samurai";
BELMS56 = "\"Stage 1-1 (Desert)\" - Ranger-X";
BELMS57 = "\"Stage 1-2 (Temple)\" - Ranger-X";
BELMS58 = "\"Stage 2-2 (Military Complex)\" - Ranger-X";
BELMS59 = "\"Stage 6-1 (Factory)\" - Ranger-X";
BELMS60 = "\"Opening Stage\" - Mega Man X";
BELMS61 = "\"Boomer Kuwanger\" - Mega Man X";
BELMS62 = "\"Sigma Stage 1\" - Mega Man X";
BELMS63 = "\"The Mavericks' Last Stand\" - Mega Man X 2";
BELMS64 = "\"Weather Wizard\" - Mega Man X 2";
BELMS65 = "\"Red Alert\" - Mega Man X 2";
BELMS66 = "\"Absolute Zero\" - Mega Man X 2";
BELMS67 = "\"Opening\" - Mega Man X 3";
BELMS68 = "\"Main Theme ~ BGM A\" - Atomic Robo-Kid";
BELMS69 = "\"BGM B\" - Atomic Robo-Kid";
BELMS70 = "\"BGM C\" - Atomic Robo-Kid";
BELMS71 = "\"BGM D\" - Atomic Robo-Kid";
BELMS72 = "\"BGM E ~ Version 1\" - Atomic Robo-Kid";
BELMS73 = "\"Dr. Wily 1\" - Mega Man 7";
BELMS74 = "\"Dr. Wily 3\" - Mega Man 7";
BELMS75 = "\"Dr. Wily 4\" - Mega Man 7";
BELMS76 = "\"New York, USA\" - Aero Fighters";
BELMS77 = "\"Tokyo, Japan\" - Aero Fighters";
BELMS78 = "\"Tundra, Sweden\" - Aero Fighters";
BELMS79 = "\"Plains, Great Britain\" - Aero Fighters";
BELMS80 = "\"Desert, Middle East\" - Aero Fighters";
BELMS81 = "\"Islands, Mediterranean\" - Aero Fighters";
BELMS82 = "\"Moscow, Russia\" - Aero Fighters";
BELMS83 = "\"Stage 1-1\" - Super Turrican";
BELMS84 = "\"Stage 1-2\" - Super Turrican";
BELMS85 = "\"Stage 1-3\" - Super Turrican";
BELMS86 = "\"Stage 2-2\" - Super Turrican";
BELMS87 = "\"Stage 2-4\" - Super Turrican";
BELMS88 = "\"Stage 3-1\" - Super Turrican";
BELMS89 = "\"The Loader\" - Rise of the Robots";
BELMS90 = "\"BHFO3 Builder\" - Rise of the Robots";
BELMS91 = "\"The Crusher\" - Rise of the Robots";
BELMS92 = "\"The Combat Droid\" - Rise of the Robots";
BELMS93 = "\"The Soldier\" - Rise of the Robots";
BELMS94 = "\"The Supervisor\" - Rise of the Robots";
BELMS95 = "\"Wave Trouble\" - James Bond 007: The Duel";
BELMS96 = "\"Space Hop\" - James Bond 007: The Duel";
BELMS97 = "\"Stage 2-1\" - Mega Turrican";
BELMS98 = "\"Stage 2-2\" - Mega Turrican";
BELMS99 = "\"Stage 3-1\" - Mega Turrican";
BELMS100 = "\"Stage 3-3\" - Mega Turrican";
BELMS101 = "\"Stage 5-1\" - Mega Turrican";
BELMS102 = "\"Shopping Center\" - Mighty Morphin' Power Rangers: The Movie (SNES)";
BELMS103 = "\"Aircraft Carrier\" - Mighty Morphin' Power Rangers: The Movie (SNES)";
BELMS104 = "\"Frozen Mountains\" - Mighty Morphin' Power Rangers: The Movie (SNES)";
BELMS105 = "\"Cargo Train\" - Mighty Morphin' Power Rangers: The Movie (SNES)";
BELMS106 = "\"Energy Generator Lab\" - Mighty Morphin' Power Rangers: The Movie (SNES)";
BELMS107 = "\"City\" - Mighty Morphin' Power Rangers (SNES)";
BELMS108 = "\"Depot\" - Mighty Morphin' Power Rangers (SNES)";
BELMS109 = "\"Sewer\" - Mighty Morphin' Power Rangers (SNES)";
BELMS110 = "\"Building\" - Mighty Morphin' Power Rangers (SNES)";
BELMS111 = "\"Cave\" - Mighty Morphin' Power Rangers (SNES)";
BELMS112 = "\"Rilair\" - Darius Twin";
BELMS113 = "\"Koloba\" - Darius Twin";
BELMS114 = "\"Lankus\" - Darius Twin";
BELMS115 = "\"Padi\" - Darius Twin";
BELMS116 = "\"Narukini\" - Darius Twin";
BELMS117 = "\"Noeru\" - Darius Twin";
BELMS118 = "\"Darius\" - Darius Twin";
BELMS119 = "\"Vapor Trail\" - Vapor Trail";
BELMS120 = "\"Bloody Road\" - Vapor Trail";
BELMS121 = "\"Stage 3\" - Rendering Ranger R2";
BELMS122 = "\"Stage 4\" - Rendering Ranger R2";
BELMS123 = "\"Stage 6\" - Rendering Ranger R2";
BELMS124 = "\"Stage 8\" - Rendering Ranger R2";
BELMS125 = "\"Kuwabara\" - Yuu Yuu Hakusho 2: Kakutou no Sho";
BELMS126 = "\"Kurama\" - Yuu Yuu Hakusho 2: Kakutou no Sho";
BELMS127 = "\"Hiei\" - Yuu Yuu Hakusho 2: Kakutou no Sho";
BELMS128 = "\"Genkai\" - Yuu Yuu Hakusho 2: Kakutou no Sho";
BELMS129 = "\"Toguro 30%\" - Yuu Yuu Hakusho 2: Kakutou no Sho";
BELMS130 = "\"Shishiwakamaru\" - Yuu Yuu Hakusho 2: Kakutou no Sho";
BELMS131 = "\"Toguro 80%\" - Yuu Yuu Hakusho 2: Kakutou no Sho";
BELMS132 = "\"Toguro 100%\" - Yuu Yuu Hakusho 2: Kakutou no Sho";
BELMS133 = "\"Staff Roll\" - Yuu Yuu Hakusho 2: Kakutou no Sho";
BELMS134 = "\"Frontline\" - Daisenryaku Expert WWII - War in Europe";
BELMS135 = "\"Iron Man\" - Daisenryaku Expert WWII - War in Europe";
BELMS136 = "\"Title\" - Super Aleste";
BELMS137 = "\"Amazonas\" - Super Aleste";
BELMS138 = "\"Space Platform\" - Super Aleste";
BELMS139 = "\"Labyrinth\" - Super Aleste";
BELMS140 = "\"Labyrinth (Alternate)\" - Super Aleste";
BELMS141 = "\"Black Hole Anomalies\" - Super Aleste";
BELMS142 = "\"Rock Downfall\" - Super Aleste";
BELMS143 = "\"Asteroid Belt\" - Super Aleste";
BELMS144 = "\"Space Cruiser\" - Super Aleste";
BELMS145 = "\"Data Highway\" - Super Aleste";
BELMS146 = "\"Organic Life\" - Super Aleste";
BELMS147 = "\"Frontline Base\" - U.N. Squadron";
BELMS148 = "\"Enemy Airforce\" - U.N. Squadron";
BELMS149 = "\"Forest Fortress 1\" - U.N. Squadron";
BELMS150 = "\"Ground Carrier\" - U.N. Squadron";
BELMS151 = "\"Project 4 Fortress\" - U.N. Squadron";
BELMS152 = "\"Quartermaster Corps\" - U.N. Squadron";
BELMS153 = "\"The Minks\" - U.N. Squadron";
BELMS154 = "\"Taj Base\" - Run Saber";
BELMS155 = "\"Tong City\" - Run Saber";
BELMS156 = "\"Joo Valley\" - Run Saber";
BELMS157 = "\"Gray Factory\" - Run Saber";
BELMS158 = "\"Bruford\" - Run Saber";
BELMS159 = "\"Stage 1\" - Firepower 2000/Super Swiv";
BELMS160 = "\"Stage 2\" - Firepower 2000/Super Swiv";
BELMS161 = "\"Stage 3\" - Firepower 2000/Super Swiv";
BELMS162 = "\"Stage 4\" - Firepower 2000/Super Swiv";
BELMS163 = "\"Stage 5\" - Firepower 2000/Super Swiv";
BELMS164 = "\"We've Gotta Do It\" - Cybernator";
BELMS165 = "\"Asteroid Run\" - Cybernator";
BELMS166 = "\"Not For Peace\" - Cybernator";
BELMS167 = "\"Till the Crack of Doom\" - Cybernator";
BELMS168 = "\"In Despair\" - Cybernator";
BELMS169 = "\"Assault\" - Phalanx";
BELMS170 = "\"Underwater\" - Phalanx";
BELMS171 = "\"Bio Cave\" - Phalanx";
BELMS172 = "\"Deep Core\" - Phalanx";
BELMS173 = "\"Destroyer\" - Phalanx";
BELMS174 = "\"Advertise Area\" - Phalanx";
BELMS175 = "\"Hyper Space\" - Phalanx";
BELMS176 = "\"Bonus Stage\" - Phalanx";
BELMS177 = "\"Headquarters\" - The Ninja Warriors";
BELMS178 = "\"Port\" - The Ninja Warriors";
BELMS179 = "\"City Center\" - The Ninja Warriors";
BELMS180 = "\"Parking Block\" - The Ninja Warriors";
BELMS181 = "\"City\" - The Ninja Warriors";
BELMS182 = "\"Skyscraper\" - The Ninja Warriors";
BELMS183 = "\"Best Room\" - The Ninja Warriors";
BELMS184 = "\"Pursuit\" - The Ninja Warriors";
BELMS185 = "\"Final Stage\" - The Ninja Warriors";
BELMS186 = "\"Silver Surfer BGM 1\" - Silver Surfer - Custom";
BELMS187 = "\"Jewel Man ~ Jewel Temptation\" - Mega Man 9 - Custom";
BELMS188 = "\"Ripple Star\" - Kirby 64: The Crystal Shards - Custom"; 
BELMS189 = "\"Wily Stage 2 ~ We're the robots\" - Mega Man 9 - Custom";
BELMS190 = "\"Phony\" - (Tetrisphere) - Custom";
BELMS191 = "\"Degeneracy - Arranged Version\" - Battle Garegga (Saturn) - Custom";
BELMS192 = "\"Neo Tokyo\" - Pulseman";
BELMS193 = "\"Integrated City\" - Pulseman";
BELMS194 = "\"Blank Structure\" - Pulseman";
BELMS195 = "\"Stereo Protect\" - Pulseman";
BELMS196 = "\"Cycle Partition\" - Pulseman";
BELMS197 = "\"Real Overflow\" - Pulseman";
BELMS198 = "\"CL Architecture\" - Pulseman";
BELMS199 = "\"Stop Program\" - Pulseman";
BELMS200 = "\"Old Capitol\" - Hyperzone";
BELMS201 = "\"Blast Furnace\" - Hyperzone";
BELMS202 = "\"Material Factory\" - Hyperzone";
BELMS203 = "\"Grass Land\" - Hyperzone";
BELMS204 = "\"Neo Megalopolis\" - Hyperzone";
BELMS205 = "\"Bioplant\" - Hyperzone";
BELMS206 = "\"Stage 1\" - Gekisou Sentai Car Rangers: Zenkai! Racer Senshi";
BELMS207 = "\"Stage 2\" - Gekisou Sentai Car Rangers: Zenkai! Racer Senshi";
BELMS208 = "\"Stage 3\" - Gekisou Sentai Car Rangers: Zenkai! Racer Senshi";
BELMS209 = "\"Aquarius\" - Castlevania III - Custom";
BELMS210 = "\"Boardin Zone (Act 1 & 3)\" - Aero the Acro-Bat 2 (SNES)";
BELMS211 = "\"Boardin Zone (Act 2)\" - Aero the Acro-Bat 2 (SNES)";
BELMS212 = "\"Dr. Dis Industries (Act 1)\" - Aero the Acro-Bat 2 (SNES)";
BELMS213 = "\"Dr. Dis Industries (Act 2)\" - Aero the Acro-Bat 2 (SNES)";
BELMS214 = "\"Dr. Dis Industries (Act 3)\" - Aero the Acro-Bat 2 (SNES)";
BELMS215 = "\"Outside Insiders' Village\" - No Escape";
BELMS216 = "\"Techno Warrior's Camps\" - No Escape";
BELMS217 = "\"Tree Dweller's Jungle\" - No Escape";
BELMS218 = "\"Tree Dweller's Jungle Clearing\" - No Escape";
BELMS219 = "\"Mole Men's Tunnels\" - No Escape";
BELMS220 = "\"Marek's Hotel Exterior\" - No Escape";
BELMS221 = "\"Marek's Hotel Interior\" - No Escape";
BELMS222 = "\"Marek's Chambers\" - No Escape";
BELMS223 = "\"Northern Barramundi\" - Undercover Cops";
BELMS224 = "\"Sarah Sowertty\" - Undercover Cops";
BELMS225 = "\"Chaca Chaca Move Ya\" - Undercover Cops";
BELMS226 = "\"Redtailed Cat\" - Undercover Cops";
BELMS227 = "\"Dandy N.D.\" - Undercover Cops";
BELMS228 = "\"Than Hawk Anger\" - Undercover Cops";
BELMS229 = "\"Indifferent Zero Other\" - Undercover Cops";
BELMS230 = "\"Stage 1 - Graveyard\" - Devilish";
BELMS231 = "\"Stage 2 - Clock Tower\" - Devilish";
BELMS232 = "\"Stage 3 - Waterfalls\" - Devilish";
BELMS233 = "\"Stage 4 - Air Passage\" - Devilish";
BELMS234 = "\"Stage 5 - Seaside\" - Devilish";
BELMS235 = "\"Stage 6 - Volcano\" - Devilish";
BELMS236 = "\"Stage 7 - Prarie\" - Devilish";
BELMS237 = "\"Main Table\" - Dragon's Fury";
BELMS238 = "\"Bonus Table 1\" - Dragon's Fury";
BELMS239 = "\"Bonus Table 2\" - Dragon's Fury";
BELMS240 = "\"Bonus Table 3\" - Dragon's Fury";
BELMS241 = "\"Bonus Table 4\" - Dragon's Fury";
BELMS242 = "\"Bonus Table 5\" - Dragon's Fury";
BELMS243 = "\"Bonus Table 6\" - Dragon's Fury";
BELMS244 = "\"Bonus Table 7\" - Dragon's Fury";
BELMS245 = "\"OMAKEBGM00 (Thunder Force II: Knights of Legend)\" - Dragon's Fury";
BELMS246 = "\"OMAKEBGM01 (Herzog Zwei: A Breach of Contract)\" - Dragon's Fury";
BELMS247 = "\"OMAKEBGM02 (Thunder Force III: Venus Fire)\" - Dragon's Fury";
BELMS248 = "\"OMAKEBGM03 (Elemental Master: Blood-Stained Lake)\" - Dragon's Fury";
BELMS249 = "\"Forgone Destruction\" - Unreal Tournament '99 - Custom";
BELMS250 = "\"Undergroud Reservoir\" - Castlevania: Aria of Sorrow - Custom";
BELMS251 = "\"Quest in the Water\" - Mega Man Battle Network 5 - Custom";
BELMS252 = "\"Factory Inspection\" - Kirby 64: The Crystal Shards - Custom";
BELMS253 = "\"Gotham City Cathedral\" - Batman: The Video Game (NES) - Custom";
BELMS254 = "\"Birth of a God\" - Final Fantasy VII - Custom";

// [Ace] Old Bullet-Eye music. | Mor'ladim - Previously exclusive to Bullet-Eye Mode.
BELMS255  = "\"Unknown (Sound Code 0B)\" - Jungle Strike";
BELMS256  = "\"Castomira - Dragon\" - Arcus Odyssey";
BELMS257  = "\"Title Theme\" - Desert Strike";
BELMS258  = "\"Final Stage\" - Strike Gunner S.T.G";
BELMS259  = "\"Stage 7\" - Rendering Ranger";
BELMS260  = "\"Runner/AD2025\" - Alien Soldier";
BELMS261  = "\"Scene 5 - The End of Red Skull, Red Skull (Part 2)\" - Captain America and the Avengers";
BELMS262  = "\"The Hard Corps\" - Contra Hard Corps";
BELMS263  = "\"JB303\" - Contra Hard Corps";
BELMS264 = "\"A Spirit of Bushi\" - Contra Hard Corps";
BELMS265 = "\"GTR Attack!\" - Contra Hard Corps";
BELMS266 = "\"Last Springsteen\" - Contra Hard Corps";
BELMS267 = "\"Stage 1, Missions 1, 2\" - Metal Head";
BELMS268 = "\"Stage 3, Missions 1, 2\" - Metal Head";
BELMS269 = "\"Stage 2, Missions 1, 2\" - Metal Head";
BELMS270 = "\"Stage 2, Mission 3\" - Metal Head";
BELMS271 = "\"Galaxy Monkey\" - Ape Escape";
BELMS272 = "\"Level Guardian\" - Alien 3 (Genesis)";
BELMS273 = "\"M.U.S.H.A.\" - Fullmetal Fighter";
BELMS274 = "\"Omake 4\" - Thunder Force IV";
BELMS275 = "\"Evil Destroyer\" - Thunder Force IV";
BELMS276 = "\"Attack Sharply\" - Thunder Force IV";
BELMS277 = "\"Simmer Down\" - Thunder Force IV";
BELMS278 = "\"Strike Out\" - Thunder Force IV";
BELMS279 = "\"Stranger\" - Thunder Force IV";
BELMS280 = "\"Metal Squad\" - Thunder Force IV";
BELMS281 = "\"War Like Requiem\" - Thunder Force IV";
BELMS282 = "\"Stand Up Against Myself (Staff Roll)\" - Thunder Force IV";
BELMS283 = "\"Omake 2\" - Thunder Force IV";
BELMS284 = "\"Omake 5\" - Thunder Force IV";
BELMS285 = "\"Omake 6\" - Thunder Force IV";
BELMS286 = "\"A Ray of Hope\" - Thunder Force II";
BELMS287 = "\"Gallantry\" - Raiden Trad";
BELMS288 = "\"Rough and Tumble\" - Raiden Trad";
BELMS289 = "\"Versus Screen\" - Shin Kidou Senki Gundam W: Endless Duel";
BELMS290 = "\"Boss-a-Nova\" - Super Turrican 2";
BELMS291 = "\"Main Theme\" - Exhaust Heat";
BELMS292 = "\"Sewer Surfin'\" - Teenage Mutant Ninja Turtles IV : Turtles in Time";
BELMS293 = "\"Omake 3\" - Thunder Force IV";
BELMS294 = "\"Forest\" - Undead Line";
BELMS295 = "\"Rock\" - Undead Line";
BELMS296 = "\"The Fantasm Soldier\" - Valis";
BELMS297 = "\"Frash of Sword\" - Valis";
BELMS298 = "\"Lonely Soldier\" - Valis";
BELMS299 = "\"The Wilderness\" - Valis";
BELMS300 = "\"Arctic\" - Shin Kidou Senki Gundam W: Endless Duel";
BELMS301 = "\"Final Boss\" - The Ninja Warriors";
BELMS302 = "\"Robo Manus (Stage 5)\" - Battletoads & Double Dragon: The Ultimate Team";
BELMS303 = "\"Last Battle\" - Battletoads in Battlemaniacs";
BELMS304 = "\"Prehistoric Boss Theme\" - Second Samurai";
BELMS305 = "\"Future Boss Theme\" - Second Samurai";
BELMS306 = "\"Unknown Track (Sound Test 09)\" - Ranger-X";
BELMS307 = "\"We Need a Hero\" - Mighty Morphin' Power Rangers: The Movie (Genesis)";
BELMS308 = "\"Boss Battle 1\" - Super Aleste";
BELMS309 = "\"Boss Battle 2\" - Super Aleste";
BELMS310 = "\"Last Boss\" - Super Aleste";
BELMS311 = "\"Boss\" - Run Saber";
BELMS312 = "\"Renegade Saber\" - Run Saber";
BELMS313 = "\"Charge\" - Phalanx";
BELMS314 = "\"Race Course\" - Speed Racer in My Most Dangerous Adventures";
BELMS315 = "\"Runaway Train\" - Energy Breaker";
BELMS316 = "\"Berserker\" - Energy Breaker";
BELMS317 = "\"Frozen Tombstone\" - Energy Breaker";
BELMS318 = "\"Burning Red-Hot for Someone's Sake\" - Energy Breaker";
BELMS319 = "\"Golden-Colored Friend\" - Energy Breaker";
BELMS320 = "\"To the Blue Horizon\" - Energy Breaker";
BELMS321 = "\"Broken-Hearted Ones\" - Energy Breaker";
BELMS322 = "\"Big Blue\" - F-Zero (Arrangement)";
BELMS323 = "\"Fire Field\" - F-Zero (Arrangement)";
BELMS324 = "\"Mute City\" - F-Zero (Arrangement)";
BELMS325 = "\"Port Town\" - F-Zero (Arrangement)";
BELMS326 = "\"Sand Ocean\" - F-Zero (Arrangement)";
BELMS327 = "\"Silence\" - F-Zero (Arrangement)";
BELMS328 = "\"White Land I\" - F-Zero (Arrangement)";
BELMS329 = "\"White Land II\" - F-Zero (Arrangement)";
BELMS330 = "\"Far Away (Stage 1)\" - Truxton";
BELMS331 = "\"Sally (Stage 2)\" - Truxton";
BELMS332 = "\"Hope (Stage 3)\" - Truxton";
BELMS333 = "\"Friend (Stage 4)\" - Truxton";
BELMS334 = "\"Unknown (Stage 5)\" - Truxton";